{
  "project_info": {
    "project_number": "298573719928",
    "firebase_url": "https://tycreader-c3552.firebaseio.com",
    "project_id": "tycreader-c3552",
    "storage_bucket": "tycreader-c3552.appspot.com"
  },
  "client": [
    {
      "client_info": {
        "mobilesdk_app_id": "1:298573719928:android:29bf8839ede66d9bd6c08d",
        "android_client_info": {
          "package_name": "com.dcarrillo.tycreader"
        }
      },
      "oauth_client": [
        {
          "client_id": "298573719928-2d10geenlo3tsmo0fk56er575q07hkn7.apps.googleusercontent.com",
          "client_type": 1,
          "android_info": {
            "package_name": "com.dcarrillo.tycreader",
            "certificate_hash": "89810299b03a50790878915a88503bc2b5cc4adc"
          }
        },
        {
          "client_id": "298573719928-gmlnko8ne8f8phkperoovej57cj87r41.apps.googleusercontent.com",
          "client_type": 3
        }
      ],
      "api_key": [
        {
          "current_key": "AIzaSyC6rKgyQbJsJ1dXPVkHRmkku3rP_x7ripU"
        }
      ],
      "services": {
        "appinvite_service": {
          "other_platform_oauth_client": [
            {
              "client_id": "298573719928-gmlnko8ne8f8phkperoovej57cj87r41.apps.googleusercontent.com",
              "client_type": 3
            }
          ]
        }
      }
    }
  ],
  "configuration_version": "1"
}